{
  "gameDatas": [
    {
      "packageName": "com.luna.jump",
      "bannerData": {
        "imageId": "com.luna.jump_banner",
        "url": "https://i.imgur.com/4Wi62a0.jpg",
        "timeUpload": 18040920
      },
      "interstitialData": {
        "imageId": "com.luna.jump_full",
        "url": "https://i.imgur.com/XyJSiNr.jpg",
        "timeUpload": 18040920
      },
      "iconData": {
        "imageId": "com.luna.jump_icon",
        "url": "https://i.imgur.com/yrQsd39.jpg",
        "timeUpload": 18040920
      }
    },
    {
      "packageName": "com.lunar.lunapika",
      "bannerData": {
        "imageId": "com.lunar.lunapika_banner",
        "url": "https://i.imgur.com/UIwO4ez.jpg",
        "timeUpload": 18040920
      },
      "interstitialData": {
        "imageId": "com.lunar.lunapika_full",
        "url": "https://i.imgur.com/QHAkuY4.jpg",
        "timeUpload": 18040920
      },
      "iconData": {
        "imageId": "com.lunar.lunapika_icon",
        "url": "https://i.imgur.com/1QXUo9A.png",
        "timeUpload": 18040920
      }
    },
    {
      "packageName": "com.TinyG.HitYourBoss",
      "bannerData": {
        "imageId": "com.TinyG.HitYourBoss_banner",
        "url": "https://i.imgur.com/EzcPMRf.jpg",
        "timeUpload": 18040920
      },
      "interstitialData": {
        "imageId": "com.TinyG.HitYourBoss_full",
        "url": "https://i.imgur.com/UEbdF82.jpg",
        "timeUpload": 18040920
      },
      "iconData": {
        "imageId": "com.TinyG.HitYourBoss_icon",
        "url": "https://i.imgur.com/EzcPMRf.jpg",
        "timeUpload": 18040920
      }
    }
  ]
}